…
``` r
goal_throws <- ufa_throws |>
  filter(goal == 1)

failed_throws <- ufa_throws |>
  filter(goal == 0 & turnover == 1)

pass_throws <- ufa_throws |>
  filter(goal == 0 & turnover == 0)

goal_throws
```

    # A tibble: 21,391 × 24
       thrower   thrower_x thrower_y receiver  receiver_x receiver_y turnover
       <chr>         <dbl>     <dbl> <chr>          <dbl>      <dbl>    <dbl>
     1 mmcdonnel     -8.09      89.8 jmalks        -15.4        105.        0
     2 tedmonds     -13.3       68.8 afall          -8.38       108.        0
     3 jtaylor1     -20.2       96   pboerth       -14.8        110.        0
     4 boort        -20.6       82.1 jwodatch1     -22.2        105.        0
     5 tchan          2.41      65.8 pboerth       -17.1        107.        0
     6 ndick        -24.3       46   rlinehan      -17.8        102.        0
     7 cboxley      -21.9       89.5 jwodatch1     -14.3        107.        0
     8 csunde       -15.4       44.2 tchan         -10.2        111.        0
     9 jnissen       24.3       92.0 boort          21.7        102.        0
    10 tchan         -3.71      35.4 pboerth         9.96       105.        0
    # ℹ 21,381 more rows
    # ℹ 17 more variables: possession_num <dbl>, possession_throw <dbl>,
    #   game_quarter <dbl>, is_home_team <lgl>, home_team_score <dbl>,
    #   away_team_score <dbl>, gameID <chr>, home_teamID <chr>, away_teamID <chr>,
    #   times <dbl>, home_team_win <dbl>, score_diff <dbl>, goal <dbl>,
    #   throw_distance <dbl>, x_diff <dbl>, y_diff <dbl>, throw_angle <dbl>

``` r
failed_throws
```

    # A tibble: 19,839 × 24
       thrower   thrower_x thrower_y receiver  receiver_x receiver_y turnover
       <chr>         <dbl>     <dbl> <chr>          <dbl>      <dbl>    <dbl>
     1 tchan          2.74      95.5 cdavisbra      -7.2        99.4        1
     2 mmcdonnel     -8.89      41.5 <NA>          -21.9        71.3        1
     3 skelley1      19.0       66   <NA>          -14.0        75.4        1
     4 cdavisbra     -1         41.5 <NA>           10.9        61.2        1
     5 dbloodgoo    -25.6       55.2 amerriman      -2.41       49.5        1
     6 cboxley       16.5       88.8 <NA>           19.4       105.         1
     7 mmcdonnel      3.42      32.4 <NA>            5.53       49.8        1
     8 lharwood     -14.9       91.9 bmccann       -19.3       101.         1
     9 cdavisbra    -13.6       16.4 <NA>           -5.2        91.0        1
    10 cboxley       -9.7       58.5 <NA>            5.17       57.7        1
    # ℹ 19,829 more rows
    # ℹ 17 more variables: possession_num <dbl>, possession_throw <dbl>,
    #   game_quarter <dbl>, is_home_team <lgl>, home_team_score <dbl>,
    #   away_team_score <dbl>, gameID <chr>, home_teamID <chr>, away_teamID <chr>,
    #   times <dbl>, home_team_win <dbl>, score_diff <dbl>, goal <dbl>,
    #   throw_distance <dbl>, x_diff <dbl>, y_diff <dbl>, throw_angle <dbl>

``` r
pass_throws
```

    # A tibble: 249,596 × 24
       thrower thrower_x thrower_y receiver receiver_x receiver_y turnover
       <chr>       <dbl>     <dbl> <chr>         <dbl>      <dbl>    <dbl>
     1 jnissen      1.02      15.1 jmalks        -8.17       23.5        0
     2 jmalks      -8.17      23.5 jnissen        2.18       27.1        0
     3 jnissen      2.18      27.1 jmalks       -10.2        33.6        0
     4 jmalks     -10.2       33.6 jnissen       -3.94       26.8        0
     5 jnissen     -3.94      26.8 boort         13.0        36.3        0
     6 boort       13.0       36.3 jmalks         1.74       34.4        0
     7 jmalks       1.74      34.4 jnissen       -9.33       33.1        0
     8 jnissen     -9.33      33.1 khealey       -5.4        45.1        0
     9 khealey     -5.4       45.1 jnissen      -11.8        44.8        0
    10 jnissen    -11.8       44.8 cboxley       -0.08       44.3        0
    # ℹ 249,586 more rows
    # ℹ 17 more variables: possession_num <dbl>, possession_throw <dbl>,
    #   game_quarter <dbl>, is_home_team <lgl>, home_team_score <dbl>,
    #   away_team_score <dbl>, gameID <chr>, home_teamID <chr>, away_teamID <chr>,
    #   times <dbl>, home_team_win <dbl>, score_diff <dbl>, goal <dbl>,
    #   throw_distance <dbl>, x_diff <dbl>, y_diff <dbl>, throw_angle <dbl>
…
throw_dist_lead
```

    # A tibble: 49 × 2
       adjusted_score_diff median_throw_distance
                     <dbl>                 <dbl>
     1                 -24                 12.8 
     2                 -23                 17.0 
     3                 -22                 12.0 
     4                 -21                 10.8 
     5                 -20                  7.66
     6                 -19                 13.4 
     7                 -18                 13.1 
     8                 -17                 15.3 
     9                 -16                 14.5 
    10                 -15                 13.7 
    # ℹ 39 more rows
…
adjusted_throw_dist_lead
```

    # A tibble: 49 × 2
       adjusted_score_diff median_throw_distance
                     <dbl>                 <dbl>
     1                 -24                 12.0 
     2                 -23                 11.2 
     3                 -22                 11.1 
     4                 -21                 10.8 
     5                 -20                  7.66
     6                 -19                 13.4 
     7                 -18                 13.0 
     8                 -17                 14.2 
     9                 -16                 14.2 
    10                 -15                 13.5 
    # ℹ 39 more rows
…
``` r
adjusted_throw_dist_lead_2 <- ufa_throws |>
  select(y_diff, is_home_team, score_diff) |>
  mutate(adjusted_score_diff =
           case_when(is_home_team == TRUE ~ score_diff,
                     is_home_team == FALSE ~ (-1) * score_diff)) |>
  # Compute the median throwing distance with each score difference
  select(adjusted_score_diff, y_diff) |>
  group_by(adjusted_score_diff) |>
  summarize(mean_y_diff = mean(y_diff))

adjusted_throw_dist_lead_2
```

    # A tibble: 49 × 2
       adjusted_score_diff mean_y_diff
                     <dbl>       <dbl>
     1                 -24       11.6 
     2                 -23       22.2 
     3                 -22       10.3 
     4                 -21        8.08
     5                 -20        5.75
     6                 -19        7.92
     7                 -18        7.83
     8                 -17       10.8 
     9                 -16        7.37
    10                 -15        7.96
    # ℹ 39 more rows
…
match_data
```

    # A tibble: 574 × 5
       game_full_date home_teamID  away_teamID winner    loser       
       <date>         <chr>        <chr>       <chr>     <chr>       
     1 2021-06-04     alleycats    mechanix    alleycats mechanix    
     2 2021-06-04     phoenix      cannons     phoenix   cannons     
     3 2021-06-04     radicals     windchill   windchill radicals    
     4 2021-06-05     union        alleycats   union     alleycats   
     5 2021-06-05     breeze       cannons     breeze    cannons     
     6 2021-06-05     aviators     growlers    growlers  aviators    
     7 2021-06-05     cascades     spiders     cascades  spiders     
     8 2021-06-05     thunderbirds glory       glory     thunderbirds
     9 2021-06-05     mechanix     radicals    radicals  mechanix    
    10 2021-06-11     glory        hustle      hustle    glory       
    # ℹ 564 more rows
…
away_appearances <- match_data |>
  count(away_teamID)

# There is also an "allstar" game, which is useful to remove in this case
total_appearances <- home_appearances |>
  full_join(away_appearances, join_by(home_teamID == away_teamID),
            suffix = c("_home", "_away")) |>
  mutate(total_matches = n_home + n_away) |>
  rename(teamID = home_teamID) |>
  filter(!(teamID %in% c("allstars1", "allstars2")))

total_appearances
```

    # A tibble: 26 × 4
       teamID    n_home n_away total_matches
       <chr>      <int>  <int>         <int>
     1 alleycats     24     26            50
     2 aviators      23     23            46
     3 breeze        26     24            50
     4 cannons       12     12            24
     5 cascades      26     23            49
     6 empire        30     23            53
     7 flyers        26     27            53
     8 glory         24     26            50
     9 growlers      25     25            50
    10 havoc         12     11            23
    # ℹ 16 more rows

``` r
# Pivoting and plotting as a facet
total_appearances_pivot <- total_appearances |>
  pivot_longer(n_home:total_matches,
               names_to = "match_type", values_to = "count") |>
  filter(match_type != "total_matches")

total_appearances_pivot
```

    # A tibble: 52 × 3
       teamID    match_type count
       <chr>     <chr>      <int>
     1 alleycats n_home        24
     2 alleycats n_away        26
     3 aviators  n_home        23
     4 aviators  n_away        23
     5 breeze    n_home        26
     6 breeze    n_away        24
     7 cannons   n_home        12
     8 cannons   n_away        12
     9 cascades  n_home        26
    10 cascades  n_away        23
    # ℹ 42 more rows
…
loss_counts <- match_data |>
  count(loser)

# There is also an "allstar" game, which is useful to remove in this case
overall_stats <- win_counts |>
  left_join(loss_counts, join_by(winner == loser),
            suffix = c("_wins", "_losses")) |>
  mutate(total_matches = n_wins + n_losses) |>
  rename(teamID = winner) |>
  filter(!(teamID %in% c("allstars1", "allstars2")))

overall_stats
```

    # A tibble: 26 × 4
       teamID    n_wins n_losses total_matches
       <chr>      <int>    <int>         <int>
     1 alleycats     23       27            50
     2 aviators      19       27            46
     3 breeze        40       10            50
     4 cannons        3       21            24
     5 cascades      20       29            49
     6 empire        45        8            53
     7 flyers        41       12            53
     8 glory         25       25            50
     9 growlers      27       23            50
    10 havoc          8       15            23
    # ℹ 16 more rows

``` r
# Same as the previous use case
overall_stats_pivot <- overall_stats |>
  pivot_longer(n_wins:total_matches,
               names_to = "outcome", values_to = "count") |>
  filter(outcome != "total_matches")

overall_stats_pivot
```

    # A tibble: 52 × 3
       teamID    outcome  count
       <chr>     <chr>    <int>
     1 alleycats n_wins      23
     2 alleycats n_losses    27
     3 aviators  n_wins      19
     4 aviators  n_losses    27
     5 breeze    n_wins      40
     6 breeze    n_losses    10
     7 cannons   n_wins       3
     8 cannons   n_losses    21
     9 cascades  n_wins      20
    10 cascades  n_losses    29
    # ℹ 42 more rows
…
``` r
# How about the win percentage?
overall_stats_win_pct <- overall_stats |>
  mutate(win_percentage = n_wins / total_matches,
# Use example from Lecture 3, mutate to display it properly in the following plot
         teamID = fct_reorder(teamID, win_percentage, .desc = TRUE)) |>
  arrange(desc(win_percentage))

overall_stats_win_pct
```

    # A tibble: 26 × 5
       teamID    n_wins n_losses total_matches win_percentage
       <fct>      <int>    <int>         <int>          <dbl>
     1 empire        45        8            53          0.849
     2 breeze        40       10            50          0.8  
     3 shred         32        8            40          0.8  
     4 windchill     43       12            55          0.782
     5 flyers        41       12            53          0.774
     6 hustle        32       14            46          0.696
     7 union         36       17            53          0.679
     8 summit        25       13            38          0.658
     9 sol           29       20            49          0.592
    10 radicals      27       22            49          0.551
    # ℹ 16 more rows
…
