…
    Rows: 290826 Columns: 24
    ── Column specification ────────────────────────────────────────────────────────
    Delimiter: ","
    chr  (5): thrower, receiver, gameID, home_teamID, away_teamID
    dbl (18): thrower_x, thrower_y, receiver_x, receiver_y, turnover, possession...
    lgl  (1): is_home_team

    ℹ Use `spec()` to retrieve the full column specification for this data.
    ℹ Specify the column types or set `show_col_types = FALSE` to quiet this message.

``` r
ufa_throws
```

    # A tibble: 290,826 × 24
       thrower thrower_x thrower_y receiver receiver_x receiver_y turnover
       <chr>       <dbl>     <dbl> <chr>         <dbl>      <dbl>    <dbl>
     1 jnissen      1.02      15.1 jmalks        -8.17       23.5        0
     2 jmalks      -8.17      23.5 jnissen        2.18       27.1        0
     3 jnissen      2.18      27.1 jmalks       -10.2        33.6        0
     4 jmalks     -10.2       33.6 jnissen       -3.94       26.8        0
     5 jnissen     -3.94      26.8 boort         13.0        36.3        0
     6 boort       13.0       36.3 jmalks         1.74       34.4        0
     7 jmalks       1.74      34.4 jnissen       -9.33       33.1        0
     8 jnissen     -9.33      33.1 khealey       -5.4        45.1        0
     9 khealey     -5.4       45.1 jnissen      -11.8        44.8        0
    10 jnissen    -11.8       44.8 cboxley       -0.08       44.3        0
    # ℹ 290,816 more rows
    # ℹ 17 more variables: possession_num <dbl>, possession_throw <dbl>,
    #   game_quarter <dbl>, is_home_team <lgl>, home_team_score <dbl>,
    #   away_team_score <dbl>, gameID <chr>, home_teamID <chr>, away_teamID <chr>,
    #   times <dbl>, home_team_win <dbl>, score_diff <dbl>, goal <dbl>,
    #   throw_distance <dbl>, x_diff <dbl>, y_diff <dbl>, throw_angle <dbl>

``` r
# Flipping the dataset so that positive x is the right side and negative x is the left side
ufa_throws <- ufa_throws |>
  mutate(thrower_x = (-1) * thrower_x,
         receiver_x = (-1) * receiver_x,
         throw_distance = sqrt((receiver_x-thrower_x)^2 + (receiver_y-thrower_y)^2),
         x_diff = receiver_x - thrower_x,
         throw_angle = atan2(y_diff, x_diff))

ufa_throws
```

    # A tibble: 290,826 × 24
       thrower thrower_x thrower_y receiver receiver_x receiver_y turnover
       <chr>       <dbl>     <dbl> <chr>         <dbl>      <dbl>    <dbl>
     1 jnissen     -1.02      15.1 jmalks         8.17       23.5        0
     2 jmalks       8.17      23.5 jnissen       -2.18       27.1        0
     3 jnissen     -2.18      27.1 jmalks        10.2        33.6        0
     4 jmalks      10.2       33.6 jnissen        3.94       26.8        0
     5 jnissen      3.94      26.8 boort        -13.0        36.3        0
     6 boort      -13.0       36.3 jmalks        -1.74       34.4        0
     7 jmalks      -1.74      34.4 jnissen        9.33       33.1        0
     8 jnissen      9.33      33.1 khealey        5.4        45.1        0
     9 khealey      5.4       45.1 jnissen       11.8        44.8        0
    10 jnissen     11.8       44.8 cboxley        0.08       44.3        0
    # ℹ 290,816 more rows
    # ℹ 17 more variables: possession_num <dbl>, possession_throw <dbl>,
    #   game_quarter <dbl>, is_home_team <lgl>, home_team_score <dbl>,
    #   away_team_score <dbl>, gameID <chr>, home_teamID <chr>, away_teamID <chr>,
    #   times <dbl>, home_team_win <dbl>, score_diff <dbl>, goal <dbl>,
    #   throw_distance <dbl>, x_diff <dbl>, y_diff <dbl>, throw_angle <dbl>

``` r
# Filtering for successful throws
successful_throws <- ufa_throws |>
  filter(turnover == 0)

successful_throws
```

    # A tibble: 270,987 × 24
       thrower thrower_x thrower_y receiver receiver_x receiver_y turnover
       <chr>       <dbl>     <dbl> <chr>         <dbl>      <dbl>    <dbl>
     1 jnissen     -1.02      15.1 jmalks         8.17       23.5        0
     2 jmalks       8.17      23.5 jnissen       -2.18       27.1        0
     3 jnissen     -2.18      27.1 jmalks        10.2        33.6        0
     4 jmalks      10.2       33.6 jnissen        3.94       26.8        0
     5 jnissen      3.94      26.8 boort        -13.0        36.3        0
     6 boort      -13.0       36.3 jmalks        -1.74       34.4        0
     7 jmalks      -1.74      34.4 jnissen        9.33       33.1        0
     8 jnissen      9.33      33.1 khealey        5.4        45.1        0
     9 khealey      5.4       45.1 jnissen       11.8        44.8        0
    10 jnissen     11.8       44.8 cboxley        0.08       44.3        0
    # ℹ 270,977 more rows
    # ℹ 17 more variables: possession_num <dbl>, possession_throw <dbl>,
    #   game_quarter <dbl>, is_home_team <lgl>, home_team_score <dbl>,
    #   away_team_score <dbl>, gameID <chr>, home_teamID <chr>, away_teamID <chr>,
    #   times <dbl>, home_team_win <dbl>, score_diff <dbl>, goal <dbl>,
    #   throw_distance <dbl>, x_diff <dbl>, y_diff <dbl>, throw_angle <dbl>
…
#### 1.1. Additional filter step for successful attacking phases (those that result in a goal)

``` r
# Create a list of attacking phases that result in a goal
successful_goals_indicators <- ufa_throws |>
  filter(goal == 1) |>
  select(gameID, game_quarter, is_home_team, possession_num,
         home_team_score, away_team_score)

successful_goals_indicators
```

    # A tibble: 21,391 × 6
       gameID            game_quarter is_home_team possession_num home_team_score
       <chr>                    <dbl> <lgl>                 <dbl>           <dbl>
     1 2023-06-24-DC-BOS            1 FALSE                     1               0
     2 2023-06-24-DC-BOS            1 FALSE                     1               0
     3 2023-06-24-DC-BOS            1 TRUE                      1               0
     4 2023-06-24-DC-BOS            1 FALSE                     2               1
     5 2023-06-24-DC-BOS            1 TRUE                      2               1
     6 2023-06-24-DC-BOS            1 TRUE                      1               2
     7 2023-06-24-DC-BOS            1 FALSE                     1               3
     8 2023-06-24-DC-BOS            1 TRUE                      1               3
     9 2023-06-24-DC-BOS            1 FALSE                     2               4
    10 2023-06-24-DC-BOS            1 TRUE                      1               4
    # ℹ 21,381 more rows
    # ℹ 1 more variable: away_team_score <dbl>

``` r
# Now only keep these attacking phases in the UFA throws table
successful_attacking_phases <- successful_goals_indicators |>
  left_join(ufa_throws,
            join_by(gameID, game_quarter, is_home_team, possession_num,
                    home_team_score, away_team_score))

successful_attacking_phases
```

    # A tibble: 173,312 × 24
       gameID            game_quarter is_home_team possession_num home_team_score
       <chr>                    <dbl> <lgl>                 <dbl>           <dbl>
     1 2023-06-24-DC-BOS            1 FALSE                     1               0
     2 2023-06-24-DC-BOS            1 FALSE                     1               0
     3 2023-06-24-DC-BOS            1 FALSE                     1               0
     4 2023-06-24-DC-BOS            1 FALSE                     1               0
     5 2023-06-24-DC-BOS            1 FALSE                     1               0
     6 2023-06-24-DC-BOS            1 FALSE                     1               0
     7 2023-06-24-DC-BOS            1 FALSE                     1               0
     8 2023-06-24-DC-BOS            1 FALSE                     1               0
     9 2023-06-24-DC-BOS            1 FALSE                     1               0
    10 2023-06-24-DC-BOS            1 FALSE                     1               0
    # ℹ 173,302 more rows
    # ℹ 19 more variables: away_team_score <dbl>, thrower <chr>, thrower_x <dbl>,
    #   thrower_y <dbl>, receiver <chr>, receiver_x <dbl>, receiver_y <dbl>,
    #   turnover <dbl>, possession_throw <dbl>, home_teamID <chr>,
    #   away_teamID <chr>, times <dbl>, home_team_win <dbl>, score_diff <dbl>,
    #   goal <dbl>, throw_distance <dbl>, x_diff <dbl>, y_diff <dbl>,
    #   throw_angle <dbl>
…
successful_attacking_phases
```

    # A tibble: 173,312 × 26
       gameID            game_quarter is_home_team possession_num home_team_score
       <chr>                    <dbl> <lgl>                 <dbl>           <dbl>
     1 2023-06-24-DC-BOS            1 FALSE                     1               0
     2 2023-06-24-DC-BOS            1 FALSE                     1               0
     3 2023-06-24-DC-BOS            1 FALSE                     1               0
     4 2023-06-24-DC-BOS            1 FALSE                     1               0
     5 2023-06-24-DC-BOS            1 FALSE                     1               0
     6 2023-06-24-DC-BOS            1 FALSE                     1               0
     7 2023-06-24-DC-BOS            1 FALSE                     1               0
     8 2023-06-24-DC-BOS            1 FALSE                     1               0
     9 2023-06-24-DC-BOS            1 FALSE                     1               0
    10 2023-06-24-DC-BOS            1 FALSE                     1               0
    # ℹ 173,302 more rows
    # ℹ 21 more variables: away_team_score <dbl>, thrower <chr>, thrower_x <dbl>,
    #   thrower_y <dbl>, receiver <chr>, receiver_x <dbl>, receiver_y <dbl>,
    #   turnover <dbl>, possession_throw <dbl>, home_teamID <chr>,
    #   away_teamID <chr>, times <dbl>, home_team_win <dbl>, score_diff <dbl>,
    #   goal <dbl>, throw_distance <dbl>, x_diff <dbl>, y_diff <dbl>,
    #   throw_angle <dbl>, throw_path_type <chr>, team_in_possession <chr>

``` r
count_throw_path_type <- successful_attacking_phases |>
  group_by(gameID, game_quarter, team_in_possession, possession_num,
           home_team_score, away_team_score) |>
  # Count the throw path type (which wing?) by each attacking phase in all matches
  count(throw_path_type) |>
  ungroup()

count_throw_path_type
```

    # A tibble: 50,333 × 8
       gameID         game_quarter team_in_possession possession_num home_team_score
       <chr>                 <dbl> <chr>                       <dbl>           <dbl>
     1 2021-06-04-DE…            1 alleycats                       1               0
     2 2021-06-04-DE…            1 alleycats                       1               2
     3 2021-06-04-DE…            1 alleycats                       1               2
     4 2021-06-04-DE…            1 alleycats                       1               3
     5 2021-06-04-DE…            1 alleycats                       1               3
     6 2021-06-04-DE…            1 alleycats                       1               4
     7 2021-06-04-DE…            1 alleycats                       1               4
     8 2021-06-04-DE…            1 alleycats                       1               5
     9 2021-06-04-DE…            1 alleycats                       1               5
    10 2021-06-04-DE…            1 alleycats                       2               1
    # ℹ 50,323 more rows
    # ℹ 3 more variables: away_team_score <dbl>, throw_path_type <chr>, n <int>
…
    `summarise()` has regrouped the output.
    ℹ Summaries were computed grouped by team_in_possession and throw_path_type.
    ℹ Output is grouped by team_in_possession.
    ℹ Use `summarise(.groups = "drop_last")` to silence this message.
    ℹ Use `summarise(.by = c(team_in_possession, throw_path_type))` for
      per-operation grouping (`?dplyr::dplyr_by`) instead.

``` r
throw_path_by_team
```

    # A tibble: 84 × 3
       team_in_possession throw_path_type count_throw_path
       <chr>              <chr>                      <int>
     1 alleycats          cross_throw                  815
     2 alleycats          left_wing                    782
     3 alleycats          right_wing                   744
     4 allstars1          cross_throw                   24
     5 allstars1          left_wing                     21
     6 allstars1          right_wing                    21
     7 allstars2          cross_throw                   19
     8 allstars2          left_wing                     20
     9 allstars2          right_wing                    18
    10 aviators           cross_throw                  655
    # ℹ 74 more rows

``` r
sum_throws_by_team <- count_throw_path_type |>
  select(team_in_possession, n) |>
  # Total of throws by team in possession
  count(team_in_possession)

sum_throws_by_team
```

    # A tibble: 28 × 2
       team_in_possession     n
       <chr>              <int>
     1 alleycats           2341
     2 allstars1             66
     3 allstars2             57
     4 aviators            1927
     5 breeze              2562
     6 cannons              833
     7 cascades            2207
     8 empire              2704
     9 flyers              2695
    10 glory               2186
    # ℹ 18 more rows

``` r
prop_throws_by_team <- throw_path_by_team |>
  left_join(sum_throws_by_team, join_by(team_in_possession)) |>
  mutate(prop = count_throw_path / n) |>
  filter(!(team_in_possession %in% c("allstars1", "allstars2")))

prop_throws_by_team
```

    # A tibble: 78 × 5
       team_in_possession throw_path_type count_throw_path     n  prop
       <chr>              <chr>                      <int> <int> <dbl>
     1 alleycats          cross_throw                  815  2341 0.348
     2 alleycats          left_wing                    782  2341 0.334
     3 alleycats          right_wing                   744  2341 0.318
     4 aviators           cross_throw                  655  1927 0.340
     5 aviators           left_wing                    650  1927 0.337
     6 aviators           right_wing                   622  1927 0.323
     7 breeze             cross_throw                  884  2562 0.345
     8 breeze             left_wing                    891  2562 0.348
     9 breeze             right_wing                   787  2562 0.307
    10 cannons            cross_throw                  295   833 0.354
    # ℹ 68 more rows
…
``` r
# Here we consider successful passes (no turnovers)

successful_throw_types <- successful_throws |>
  mutate(throw_path_type = case_when(
    (thrower_x >= 0) & (receiver_x >= 0) ~ "right_wing",
    (thrower_x <= 0) & (receiver_x <= 0) ~ "left_wing",
    TRUE ~ "cross_throw"
    ))

successful_throw_types
```

    # A tibble: 270,987 × 25
       thrower thrower_x thrower_y receiver receiver_x receiver_y turnover
       <chr>       <dbl>     <dbl> <chr>         <dbl>      <dbl>    <dbl>
     1 jnissen     -1.02      15.1 jmalks         8.17       23.5        0
     2 jmalks       8.17      23.5 jnissen       -2.18       27.1        0
     3 jnissen     -2.18      27.1 jmalks        10.2        33.6        0
     4 jmalks      10.2       33.6 jnissen        3.94       26.8        0
     5 jnissen      3.94      26.8 boort        -13.0        36.3        0
     6 boort      -13.0       36.3 jmalks        -1.74       34.4        0
     7 jmalks      -1.74      34.4 jnissen        9.33       33.1        0
     8 jnissen      9.33      33.1 khealey        5.4        45.1        0
     9 khealey      5.4       45.1 jnissen       11.8        44.8        0
    10 jnissen     11.8       44.8 cboxley        0.08       44.3        0
    # ℹ 270,977 more rows
    # ℹ 18 more variables: possession_num <dbl>, possession_throw <dbl>,
    #   game_quarter <dbl>, is_home_team <lgl>, home_team_score <dbl>,
    #   away_team_score <dbl>, gameID <chr>, home_teamID <chr>, away_teamID <chr>,
    #   times <dbl>, home_team_win <dbl>, score_diff <dbl>, goal <dbl>,
    #   throw_distance <dbl>, x_diff <dbl>, y_diff <dbl>, throw_angle <dbl>,
    #   throw_path_type <chr>
…
``` r
# Create another dataset of unsuccessful attacking phases
# Similar to the successful attacking phases data outlined earlier in this notebook
turnover_indicators <- ufa_throws |>
  filter(turnover == 1) |>
  select(gameID, game_quarter, is_home_team, possession_num,
         home_team_score, away_team_score)

turnover_indicators
```

    # A tibble: 19,839 × 6
       gameID            game_quarter is_home_team possession_num home_team_score
       <chr>                    <dbl> <lgl>                 <dbl>           <dbl>
     1 2023-06-24-DC-BOS            1 TRUE                      1               0
     2 2023-06-24-DC-BOS            1 FALSE                     1               1
     3 2023-06-24-DC-BOS            1 TRUE                      1               1
     4 2023-06-24-DC-BOS            1 TRUE                      1               1
     5 2023-06-24-DC-BOS            1 FALSE                     1               1
     6 2023-06-24-DC-BOS            1 FALSE                     1               2
     7 2023-06-24-DC-BOS            1 FALSE                     1               4
     8 2023-06-24-DC-BOS            1 TRUE                      1               4
     9 2023-06-24-DC-BOS            1 TRUE                      1               5
    10 2023-06-24-DC-BOS            2 FALSE                     1               6
    # ℹ 19,829 more rows
    # ℹ 1 more variable: away_team_score <dbl>
…
    Warning in left_join(turnover_indicators, ufa_throws, join_by(gameID, game_quarter, : Detected an unexpected many-to-many relationship between `x` and `y`.
    ℹ Row 1 of `x` matches multiple rows in `y`.
    ℹ Row 4093 of `y` matches multiple rows in `x`.
    ℹ If a many-to-many relationship is expected, set `relationship =
      "many-to-many"` to silence this warning.

``` r
unsuccessful_attacking_phases
```

    # A tibble: 112,618 × 26
       gameID            game_quarter is_home_team possession_num home_team_score
       <chr>                    <dbl> <lgl>                 <dbl>           <dbl>
     1 2023-06-24-DC-BOS            1 TRUE                      1               0
     2 2023-06-24-DC-BOS            1 TRUE                      1               0
     3 2023-06-24-DC-BOS            1 TRUE                      1               0
     4 2023-06-24-DC-BOS            1 TRUE                      1               0
     5 2023-06-24-DC-BOS            1 TRUE                      1               0
     6 2023-06-24-DC-BOS            1 TRUE                      1               0
     7 2023-06-24-DC-BOS            1 FALSE                     1               1
     8 2023-06-24-DC-BOS            1 FALSE                     1               1
     9 2023-06-24-DC-BOS            1 FALSE                     1               1
    10 2023-06-24-DC-BOS            1 FALSE                     1               1
    # ℹ 112,608 more rows
    # ℹ 21 more variables: away_team_score <dbl>, thrower <chr>, thrower_x <dbl>,
    #   thrower_y <dbl>, receiver <chr>, receiver_x <dbl>, receiver_y <dbl>,
    #   turnover <dbl>, possession_throw <dbl>, home_teamID <chr>,
    #   away_teamID <chr>, times <dbl>, home_team_win <dbl>, score_diff <dbl>,
    #   goal <dbl>, throw_distance <dbl>, x_diff <dbl>, y_diff <dbl>,
    #   throw_angle <dbl>, attack_outcome <dbl>, throw_path_type <chr>
…
