…
    Rows: 290826 Columns: 24
    ── Column specification ────────────────────────────────────────────────────────
    Delimiter: ","
    chr  (5): thrower, receiver, gameID, home_teamID, away_teamID
    dbl (18): thrower_x, thrower_y, receiver_x, receiver_y, turnover, possession...
    lgl  (1): is_home_team

    ℹ Use `spec()` to retrieve the full column specification for this data.
    ℹ Specify the column types or set `show_col_types = FALSE` to quiet this message.

``` r
ufa_throws
```

    # A tibble: 290,826 × 24
       thrower thrower_x thrower_y receiver receiver_x receiver_y turnover
       <chr>       <dbl>     <dbl> <chr>         <dbl>      <dbl>    <dbl>
     1 jnissen      1.02      15.1 jmalks        -8.17       23.5        0
     2 jmalks      -8.17      23.5 jnissen        2.18       27.1        0
     3 jnissen      2.18      27.1 jmalks       -10.2        33.6        0
     4 jmalks     -10.2       33.6 jnissen       -3.94       26.8        0
     5 jnissen     -3.94      26.8 boort         13.0        36.3        0
     6 boort       13.0       36.3 jmalks         1.74       34.4        0
     7 jmalks       1.74      34.4 jnissen       -9.33       33.1        0
     8 jnissen     -9.33      33.1 khealey       -5.4        45.1        0
     9 khealey     -5.4       45.1 jnissen      -11.8        44.8        0
    10 jnissen    -11.8       44.8 cboxley       -0.08       44.3        0
    # ℹ 290,816 more rows
    # ℹ 17 more variables: possession_num <dbl>, possession_throw <dbl>,
    #   game_quarter <dbl>, is_home_team <lgl>, home_team_score <dbl>,
    #   away_team_score <dbl>, gameID <chr>, home_teamID <chr>, away_teamID <chr>,
    #   times <dbl>, home_team_win <dbl>, score_diff <dbl>, goal <dbl>,
    #   throw_distance <dbl>, x_diff <dbl>, y_diff <dbl>, throw_angle <dbl>

``` r
# Flipping the dataset so that positive x is the right side and negative x is the left side
ufa_throws <- ufa_throws |>
  mutate(thrower_x = (-1) * thrower_x,
         receiver_x = (-1) * receiver_x,
         throw_distance = sqrt((receiver_x-thrower_x)^2 + (receiver_y-thrower_y)^2),
         x_diff = receiver_x - thrower_x,
         throw_angle = atan2(y_diff, x_diff))

ufa_throws
```

    # A tibble: 290,826 × 24
       thrower thrower_x thrower_y receiver receiver_x receiver_y turnover
       <chr>       <dbl>     <dbl> <chr>         <dbl>      <dbl>    <dbl>
     1 jnissen     -1.02      15.1 jmalks         8.17       23.5        0
     2 jmalks       8.17      23.5 jnissen       -2.18       27.1        0
     3 jnissen     -2.18      27.1 jmalks        10.2        33.6        0
     4 jmalks      10.2       33.6 jnissen        3.94       26.8        0
     5 jnissen      3.94      26.8 boort        -13.0        36.3        0
     6 boort      -13.0       36.3 jmalks        -1.74       34.4        0
     7 jmalks      -1.74      34.4 jnissen        9.33       33.1        0
     8 jnissen      9.33      33.1 khealey        5.4        45.1        0
     9 khealey      5.4       45.1 jnissen       11.8        44.8        0
    10 jnissen     11.8       44.8 cboxley        0.08       44.3        0
    # ℹ 290,816 more rows
    # ℹ 17 more variables: possession_num <dbl>, possession_throw <dbl>,
    #   game_quarter <dbl>, is_home_team <lgl>, home_team_score <dbl>,
    #   away_team_score <dbl>, gameID <chr>, home_teamID <chr>, away_teamID <chr>,
    #   times <dbl>, home_team_win <dbl>, score_diff <dbl>, goal <dbl>,
    #   throw_distance <dbl>, x_diff <dbl>, y_diff <dbl>, throw_angle <dbl>

``` r
ufa_throws_updated <- ufa_throws |>
  mutate(attacking_phaseID = consecutive_id(gameID, game_quarter, is_home_team,
                                            possession_num, home_team_score,
                                            away_team_score))
  
ufa_throws_updated
```

    # A tibble: 290,826 × 25
       thrower thrower_x thrower_y receiver receiver_x receiver_y turnover
       <chr>       <dbl>     <dbl> <chr>         <dbl>      <dbl>    <dbl>
     1 jnissen     -1.02      15.1 jmalks         8.17       23.5        0
     2 jmalks       8.17      23.5 jnissen       -2.18       27.1        0
     3 jnissen     -2.18      27.1 jmalks        10.2        33.6        0
     4 jmalks      10.2       33.6 jnissen        3.94       26.8        0
     5 jnissen      3.94      26.8 boort        -13.0        36.3        0
     6 boort      -13.0       36.3 jmalks        -1.74       34.4        0
     7 jmalks      -1.74      34.4 jnissen        9.33       33.1        0
     8 jnissen      9.33      33.1 khealey        5.4        45.1        0
     9 khealey      5.4       45.1 jnissen       11.8        44.8        0
    10 jnissen     11.8       44.8 cboxley        0.08       44.3        0
    # ℹ 290,816 more rows
    # ℹ 18 more variables: possession_num <dbl>, possession_throw <dbl>,
    #   game_quarter <dbl>, is_home_team <lgl>, home_team_score <dbl>,
    #   away_team_score <dbl>, gameID <chr>, home_teamID <chr>, away_teamID <chr>,
    #   times <dbl>, home_team_win <dbl>, score_diff <dbl>, goal <dbl>,
    #   throw_distance <dbl>, x_diff <dbl>, y_diff <dbl>, throw_angle <dbl>,
    #   attacking_phaseID <int>
…
attack_outcome_indicators
```

    # A tibble: 42,449 × 2
       attacking_phaseID attack_outcome
                   <int>          <dbl>
     1                 1              1
     2                 2              0
     3                 3              1
     4                 4              1
     5                 5              0
     6                 6              0
     7                 7              1
     8                 8              0
     9                 9              0
    10                10              1
    # ℹ 42,439 more rows

``` r
# Join back to the updated UFA throws dataframe
ufa_throws_updated <- ufa_throws_updated |>
  left_join(attack_outcome_indicators)
```

    Joining with `by = join_by(attacking_phaseID)`

``` r
ufa_throws_updated
```

    # A tibble: 290,826 × 26
       thrower thrower_x thrower_y receiver receiver_x receiver_y turnover
       <chr>       <dbl>     <dbl> <chr>         <dbl>      <dbl>    <dbl>
     1 jnissen     -1.02      15.1 jmalks         8.17       23.5        0
     2 jmalks       8.17      23.5 jnissen       -2.18       27.1        0
     3 jnissen     -2.18      27.1 jmalks        10.2        33.6        0
     4 jmalks      10.2       33.6 jnissen        3.94       26.8        0
     5 jnissen      3.94      26.8 boort        -13.0        36.3        0
     6 boort      -13.0       36.3 jmalks        -1.74       34.4        0
     7 jmalks      -1.74      34.4 jnissen        9.33       33.1        0
     8 jnissen      9.33      33.1 khealey        5.4        45.1        0
     9 khealey      5.4       45.1 jnissen       11.8        44.8        0
    10 jnissen     11.8       44.8 cboxley        0.08       44.3        0
    # ℹ 290,816 more rows
    # ℹ 19 more variables: possession_num <dbl>, possession_throw <dbl>,
    #   game_quarter <dbl>, is_home_team <lgl>, home_team_score <dbl>,
    #   away_team_score <dbl>, gameID <chr>, home_teamID <chr>, away_teamID <chr>,
    #   times <dbl>, home_team_win <dbl>, score_diff <dbl>, goal <dbl>,
    #   throw_distance <dbl>, x_diff <dbl>, y_diff <dbl>, throw_angle <dbl>,
    #   attacking_phaseID <int>, attack_outcome <dbl>
…
ufa_throws_updated
```

    # A tibble: 290,826 × 29
       thrower thrower_x thrower_y receiver receiver_x receiver_y turnover
       <chr>       <dbl>     <dbl> <chr>         <dbl>      <dbl>    <dbl>
     1 jnissen     -1.02      15.1 jmalks         8.17       23.5        0
     2 jmalks       8.17      23.5 jnissen       -2.18       27.1        0
     3 jnissen     -2.18      27.1 jmalks        10.2        33.6        0
     4 jmalks      10.2       33.6 jnissen        3.94       26.8        0
     5 jnissen      3.94      26.8 boort        -13.0        36.3        0
     6 boort      -13.0       36.3 jmalks        -1.74       34.4        0
     7 jmalks      -1.74      34.4 jnissen        9.33       33.1        0
     8 jnissen      9.33      33.1 khealey        5.4        45.1        0
     9 khealey      5.4       45.1 jnissen       11.8        44.8        0
    10 jnissen     11.8       44.8 cboxley        0.08       44.3        0
    # ℹ 290,816 more rows
    # ℹ 22 more variables: possession_num <dbl>, possession_throw <dbl>,
    #   game_quarter <dbl>, is_home_team <lgl>, home_team_score <dbl>,
    #   away_team_score <dbl>, gameID <chr>, home_teamID <chr>, away_teamID <chr>,
    #   times <dbl>, home_team_win <dbl>, score_diff <dbl>, goal <dbl>,
    #   throw_distance <dbl>, x_diff <dbl>, y_diff <dbl>, throw_angle <dbl>,
    #   attacking_phaseID <int>, attack_outcome <dbl>, team_in_possession <chr>, …
…
``` r
# Mean throwing distance (successful attacking phases)
throw_dist_by_team_1 <- ufa_throws_updated |>
  filter(attack_outcome == 1,
         !(team_in_possession %in% c("allstars1", "allstars2"))) |>
  select(team_in_possession, throw_distance) |>
  group_by(team_in_possession) |>
  summarize(mean_throw_distance_1 = mean(throw_distance)) |>
  arrange(desc(mean_throw_distance_1))

throw_dist_by_team_1
```

    # A tibble: 26 × 2
       team_in_possession mean_throw_distance_1
       <chr>                              <dbl>
     1 nitro                               18.3
     2 rush                                17.8
     3 outlaws                             17.5
     4 phoenix                             17.5
     5 cannons                             17.5
     6 legion                              17.4
     7 royal                               17.4
     8 empire                              17.4
     9 sol                                 17.4
    10 summit                              17.1
    # ℹ 16 more rows

``` r
# Mean throwing distance (all attacking phases, except for turnovers)
throw_dist_by_team_all <- ufa_throws_updated |>
  filter(turnover != 1,
         !(team_in_possession %in% c("allstars1", "allstars2"))) |>
  select(team_in_possession, throw_distance) |>
  group_by(team_in_possession) |>
  summarize(mean_throw_distance_all = mean(throw_distance)) |>
  arrange(desc(mean_throw_distance_all))

throw_dist_by_team_all
```

    # A tibble: 26 × 2
       team_in_possession mean_throw_distance_all
       <chr>                                <dbl>
     1 empire                                16.9
     2 nitro                                 16.8
     3 rush                                  16.6
     4 outlaws                               16.5
     5 sol                                   16.4
     6 summit                                16.4
     7 phoenix                               16.4
     8 royal                                 16.3
     9 legion                                16.2
    10 spiders                               16.1
    # ℹ 16 more rows
…
    `summarise()` has regrouped the output.
    ℹ Summaries were computed grouped by attacking_phaseID and team_in_possession.
    ℹ Output is grouped by attacking_phaseID.
    ℹ Use `summarise(.groups = "drop_last")` to silence this message.
    ℹ Use `summarise(.by = c(attacking_phaseID, team_in_possession))` for
      per-operation grouping (`?dplyr::dplyr_by`) instead.

``` r
time_for_goals
```

    # A tibble: 26 × 2
       team_in_possession median_goal_duration
       <chr>                             <dbl>
     1 alleycats                          38  
     2 aviators                           38.6
     3 breeze                             42  
     4 cannons                            36  
     5 cascades                           35.4
     6 empire                             42  
     7 flyers                             38  
     8 glory                              37.8
     9 growlers                           35  
    10 havoc                              33.0
    # ℹ 16 more rows
…
    `summarise()` has regrouped the output.
    ℹ Summaries were computed grouped by attacking_phaseID and team_in_possession.
    ℹ Output is grouped by attacking_phaseID.
    ℹ Use `summarise(.groups = "drop_last")` to silence this message.
    ℹ Use `summarise(.by = c(attacking_phaseID, team_in_possession))` for
      per-operation grouping (`?dplyr::dplyr_by`) instead.

``` r
time_for_turnovers
```

    # A tibble: 26 × 2
       team_in_possession median_turnover_duration
       <chr>                                 <dbl>
     1 alleycats                              23.3
     2 aviators                               23.2
     3 breeze                                 22.6
     4 cannons                                22  
     5 cascades                               20.1
     6 empire                                 22.4
     7 flyers                                 20.5
     8 glory                                  21.5
     9 growlers                               22.1
    10 havoc                                  20.7
    # ℹ 16 more rows
…
Exact definitions of how long should the “huck” be vary a lot by
tournament; I just found that information unofficially on a Reddit post:

https://www.reddit.com/r/ultimate/comments/v6qlv0/the_audl_has_started_taking_stats_on_hucks_in/

``` r
huck_throws <- ufa_throws_updated |>
  filter(y_diff >= 40)

huck_throws
```

    # A tibble: 12,967 × 29
       thrower   thrower_x thrower_y receiver  receiver_x receiver_y turnover
       <chr>         <dbl>     <dbl> <chr>          <dbl>      <dbl>    <dbl>
     1 tchan         -2.41      65.8 pboerth        17.1       107.         0
     2 ndick         24.3       46   rlinehan       17.8       102.         0
     3 csunde        15.4       44.2 tchan          10.2       111.         0
     4 tchan          3.71      35.4 pboerth        -9.96      105.         0
     5 cdavisbra     13.6       16.4 <NA>            5.2        91.0        1
     6 thalkyard      9.84      54.9 lharwood       19.9       103.         0
     7 ilee           0         40   lrehfuss      -11.2        93.8        0
     8 cmcsweene     23.8       19.6 thalkyard      11.5        63.2        0
     9 tchan          3.78      39.7 <NA>            5.2       104.         1
    10 rbergeron     16.9       41.6 <NA>           12.3        91.7        1
    # ℹ 12,957 more rows
    # ℹ 22 more variables: possession_num <dbl>, possession_throw <dbl>,
    #   game_quarter <dbl>, is_home_team <lgl>, home_team_score <dbl>,
    #   away_team_score <dbl>, gameID <chr>, home_teamID <chr>, away_teamID <chr>,
    #   times <dbl>, home_team_win <dbl>, score_diff <dbl>, goal <dbl>,
    #   throw_distance <dbl>, x_diff <dbl>, y_diff <dbl>, throw_angle <dbl>,
    #   attacking_phaseID <int>, attack_outcome <dbl>, team_in_possession <chr>, …
…
