…
    Rows: 290826 Columns: 24
    ── Column specification ────────────────────────────────────────────────────────
    Delimiter: ","
    chr  (5): thrower, receiver, gameID, home_teamID, away_teamID
    dbl (18): thrower_x, thrower_y, receiver_x, receiver_y, turnover, possession...
    lgl  (1): is_home_team

    ℹ Use `spec()` to retrieve the full column specification for this data.
    ℹ Specify the column types or set `show_col_types = FALSE` to quiet this message.

``` r
ufa_throws
```

    # A tibble: 290,826 × 24
       thrower thrower_x thrower_y receiver receiver_x receiver_y turnover
       <chr>       <dbl>     <dbl> <chr>         <dbl>      <dbl>    <dbl>
     1 jnissen      1.02      15.1 jmalks        -8.17       23.5        0
     2 jmalks      -8.17      23.5 jnissen        2.18       27.1        0
     3 jnissen      2.18      27.1 jmalks       -10.2        33.6        0
     4 jmalks     -10.2       33.6 jnissen       -3.94       26.8        0
     5 jnissen     -3.94      26.8 boort         13.0        36.3        0
     6 boort       13.0       36.3 jmalks         1.74       34.4        0
     7 jmalks       1.74      34.4 jnissen       -9.33       33.1        0
     8 jnissen     -9.33      33.1 khealey       -5.4        45.1        0
     9 khealey     -5.4       45.1 jnissen      -11.8        44.8        0
    10 jnissen    -11.8       44.8 cboxley       -0.08       44.3        0
    # ℹ 290,816 more rows
    # ℹ 17 more variables: possession_num <dbl>, possession_throw <dbl>,
    #   game_quarter <dbl>, is_home_team <lgl>, home_team_score <dbl>,
    #   away_team_score <dbl>, gameID <chr>, home_teamID <chr>, away_teamID <chr>,
    #   times <dbl>, home_team_win <dbl>, score_diff <dbl>, goal <dbl>,
    #   throw_distance <dbl>, x_diff <dbl>, y_diff <dbl>, throw_angle <dbl>
…
ufa_throws_updated
```

    # A tibble: 102,324 × 27
       thrower thrower_x thrower_y receiver receiver_x receiver_y turnover
       <chr>       <dbl>     <dbl> <chr>         <dbl>      <dbl>    <dbl>
     1 jnissen     -1.02      15.1 jmalks         8.17       23.5        0
     2 jmalks       8.17      23.5 jnissen       -2.18       27.1        0
     3 jnissen     -2.18      27.1 jmalks        10.2        33.6        0
     4 jmalks      10.2       33.6 jnissen        3.94       26.8        0
     5 jnissen      3.94      26.8 boort        -13.0        36.3        0
     6 boort      -13.0       36.3 jmalks        -1.74       34.4        0
     7 jmalks      -1.74      34.4 jnissen        9.33       33.1        0
     8 jnissen      9.33      33.1 khealey        5.4        45.1        0
     9 khealey      5.4       45.1 jnissen       11.8        44.8        0
    10 jnissen     11.8       44.8 cboxley        0.08       44.3        0
    # ℹ 102,314 more rows
    # ℹ 20 more variables: possession_num <dbl>, possession_throw <dbl>,
    #   game_quarter <dbl>, is_home_team <lgl>, home_team_score <dbl>,
    #   away_team_score <dbl>, gameID <chr>, home_teamID <chr>, away_teamID <chr>,
    #   times <dbl>, home_team_win <dbl>, score_diff <dbl>, goal <dbl>,
    #   throw_distance <dbl>, x_diff <dbl>, y_diff <dbl>, throw_angle <dbl>,
    #   team_in_possession <chr>, throw_path_type <chr>, attacking_phaseID <int>
…
attack_outcome_indicators
```

    # A tibble: 14,781 × 2
       attacking_phaseID attack_outcome
                   <int>          <dbl>
     1                 1              1
     2                 2              0
     3                 3              1
     4                 4              1
     5                 5              0
     6                 6              0
     7                 7              1
     8                 8              0
     9                 9              0
    10                10              1
    # ℹ 14,771 more rows

``` r
ufa_throws_updated <- ufa_throws_updated |>
  left_join(attack_outcome_indicators, join_by(attacking_phaseID))

ufa_throws_updated
```

    # A tibble: 102,324 × 28
       thrower thrower_x thrower_y receiver receiver_x receiver_y turnover
       <chr>       <dbl>     <dbl> <chr>         <dbl>      <dbl>    <dbl>
     1 jnissen     -1.02      15.1 jmalks         8.17       23.5        0
     2 jmalks       8.17      23.5 jnissen       -2.18       27.1        0
     3 jnissen     -2.18      27.1 jmalks        10.2        33.6        0
     4 jmalks      10.2       33.6 jnissen        3.94       26.8        0
     5 jnissen      3.94      26.8 boort        -13.0        36.3        0
     6 boort      -13.0       36.3 jmalks        -1.74       34.4        0
     7 jmalks      -1.74      34.4 jnissen        9.33       33.1        0
     8 jnissen      9.33      33.1 khealey        5.4        45.1        0
     9 khealey      5.4       45.1 jnissen       11.8        44.8        0
    10 jnissen     11.8       44.8 cboxley        0.08       44.3        0
    # ℹ 102,314 more rows
    # ℹ 21 more variables: possession_num <dbl>, possession_throw <dbl>,
    #   game_quarter <dbl>, is_home_team <lgl>, home_team_score <dbl>,
    #   away_team_score <dbl>, gameID <chr>, home_teamID <chr>, away_teamID <chr>,
    #   times <dbl>, home_team_win <dbl>, score_diff <dbl>, goal <dbl>,
    #   throw_distance <dbl>, x_diff <dbl>, y_diff <dbl>, throw_angle <dbl>,
    #   team_in_possession <chr>, throw_path_type <chr>, attacking_phaseID <int>, …
…
