…
team_stats|>
  mutate(throws_per_goal = total_throws / total_goals_scored)|>
  select(throws_per_goal)
```

    # A tibble: 26 × 1
       throws_per_goal
                 <dbl>
     1            13.1
     2            12.6
     3            12.2
     4            13.1
     5            11.0
     6            10.7
     7            10.9
     8            11.2
     9            10.8
    10            13.5
    # ℹ 16 more rows
…
    Rows: 290826 Columns: 24
    ── Column specification ────────────────────────────────────────────────────────
    Delimiter: ","
    chr  (5): thrower, receiver, gameID, home_teamID, away_teamID
    dbl (18): thrower_x, thrower_y, receiver_x, receiver_y, turnover, possession...
    lgl  (1): is_home_team

    ℹ Use `spec()` to retrieve the full column specification for this data.
    ℹ Specify the column types or set `show_col_types = FALSE` to quiet this message.

``` r
ufa_throws
```

    # A tibble: 290,826 × 24
       thrower thrower_x thrower_y receiver receiver_x receiver_y turnover
       <chr>       <dbl>     <dbl> <chr>         <dbl>      <dbl>    <dbl>
     1 jnissen      1.02      15.1 jmalks        -8.17       23.5        0
     2 jmalks      -8.17      23.5 jnissen        2.18       27.1        0
     3 jnissen      2.18      27.1 jmalks       -10.2        33.6        0
     4 jmalks     -10.2       33.6 jnissen       -3.94       26.8        0
     5 jnissen     -3.94      26.8 boort         13.0        36.3        0
     6 boort       13.0       36.3 jmalks         1.74       34.4        0
     7 jmalks       1.74      34.4 jnissen       -9.33       33.1        0
     8 jnissen     -9.33      33.1 khealey       -5.4        45.1        0
     9 khealey     -5.4       45.1 jnissen      -11.8        44.8        0
    10 jnissen    -11.8       44.8 cboxley       -0.08       44.3        0
    # ℹ 290,816 more rows
    # ℹ 17 more variables: possession_num <dbl>, possession_throw <dbl>,
    #   game_quarter <dbl>, is_home_team <lgl>, home_team_score <dbl>,
    #   away_team_score <dbl>, gameID <chr>, home_teamID <chr>, away_teamID <chr>,
    #   times <dbl>, home_team_win <dbl>, score_diff <dbl>, goal <dbl>,
    #   throw_distance <dbl>, x_diff <dbl>, y_diff <dbl>, throw_angle <dbl>
…
ufa_throws_updated
```

    # A tibble: 19,562 × 27
       thrower   thrower_x thrower_y receiver  receiver_x receiver_y turnover
       <chr>         <dbl>     <dbl> <chr>          <dbl>      <dbl>    <dbl>
     1 echartock      0         40   srueschem      13.0        38.1        0
     2 srueschem     13.0       38.1 rosgar         12.8        53.1        0
     3 rosgar        12.8       53.1 echartock      -6.54       55.0        0
     4 echartock     -6.54      55.0 jwilliams       5.6        55.1        0
     5 jwilliams      5.6       55.1 echartock     -10.6        48.7        0
     6 echartock    -10.6       38.7 srueschem       3.96       34.9        0
     7 srueschem      3.96      34.9 ochartock     -14.0        52.7        0
     8 ochartock    -14.0       52.7 cweinberg     -12.8        69          0
     9 cweinberg    -12.8       69   echartock      -9.2        59.7        0
    10 echartock     -9.2       59.7 jwilliams     -18.3        69.8        0
    # ℹ 19,552 more rows
    # ℹ 20 more variables: possession_num <dbl>, possession_throw <dbl>,
    #   game_quarter <dbl>, is_home_team <lgl>, home_team_score <dbl>,
    #   away_team_score <dbl>, gameID <chr>, home_teamID <chr>, away_teamID <chr>,
    #   times <dbl>, home_team_win <dbl>, score_diff <dbl>, goal <dbl>,
    #   throw_distance <dbl>, x_diff <dbl>, y_diff <dbl>, throw_angle <dbl>,
    #   team_in_possession <chr>, throw_path_type <chr>, attacking_phaseID <int>
…
attack_outcome_indicators
```

    # A tibble: 2,769 × 2
       attacking_phaseID attack_outcome
                   <int>          <dbl>
     1               474              1
     2               476              1
     3               478              1
     4               480              1
     5               482              0
     6               483              1
     7               485              1
     8               487              0
     9               489              1
    10               492              1
    # ℹ 2,759 more rows

``` r
ufa_throws_updated <- ufa_throws_updated |>
  left_join(attack_outcome_indicators, join_by(attacking_phaseID))

ufa_throws_updated
```

    # A tibble: 19,562 × 28
       thrower   thrower_x thrower_y receiver  receiver_x receiver_y turnover
       <chr>         <dbl>     <dbl> <chr>          <dbl>      <dbl>    <dbl>
     1 echartock      0         40   srueschem      13.0        38.1        0
     2 srueschem     13.0       38.1 rosgar         12.8        53.1        0
     3 rosgar        12.8       53.1 echartock      -6.54       55.0        0
     4 echartock     -6.54      55.0 jwilliams       5.6        55.1        0
     5 jwilliams      5.6       55.1 echartock     -10.6        48.7        0
     6 echartock    -10.6       38.7 srueschem       3.96       34.9        0
     7 srueschem      3.96      34.9 ochartock     -14.0        52.7        0
     8 ochartock    -14.0       52.7 cweinberg     -12.8        69          0
     9 cweinberg    -12.8       69   echartock      -9.2        59.7        0
    10 echartock     -9.2       59.7 jwilliams     -18.3        69.8        0
    # ℹ 19,552 more rows
    # ℹ 21 more variables: possession_num <dbl>, possession_throw <dbl>,
    #   game_quarter <dbl>, is_home_team <lgl>, home_team_score <dbl>,
    #   away_team_score <dbl>, gameID <chr>, home_teamID <chr>, away_teamID <chr>,
    #   times <dbl>, home_team_win <dbl>, score_diff <dbl>, goal <dbl>,
    #   throw_distance <dbl>, x_diff <dbl>, y_diff <dbl>, throw_angle <dbl>,
    #   team_in_possession <chr>, throw_path_type <chr>, attacking_phaseID <int>, …
…
